Assignment-D
…
Assignment-D

Exercises from R4DS

Filter()

library(nycflights13)
library(tidyverse)
library(dplyr)

flights

# A tibble: 336,776 × 19
    year month   day dep_time sched_dep_time dep_delay arr_time sched_arr_time
   <int> <int> <int>    <int>          <int>     <dbl>    <int>          <int>
 1  2013     1     1      517            515         2      830            819
 2  2013     1     1      533            529         4      850            830
 3  2013     1     1      542            540         2      923            850
 4  2013     1     1      544            545        -1     1004           1022
 5  2013     1     1      554            600        -6      812            837
 6  2013     1     1      554            558        -4      740            728
 7  2013     1     1      555            600        -5      913            854
 8  2013     1     1      557            600        -3      709            723
 9  2013     1     1      557            600        -3      838            846
10  2013     1     1      558            600        -2      753            745
# ℹ 336,766 more rows
# ℹ 11 more variables: arr_delay <dbl>, carrier <chr>, flight <int>,
#   tailnum <chr>, origin <chr>, dest <chr>, air_time <dbl>, distance <dbl>,
#   hour <dbl>, minute <dbl>, time_hour <dttm>

#filter() and arrange () opearates on ROWs
#filter() changes rows are present without changing their orders, columns are left unchanged.
#arrange() changes order but does not change rows are present, columns are left unchanged
#distinct() finds rows with unique values, optionally can modify columns

#Find all flights that departed more than 120 minutes (two hours) late
flights |> filter(dep_delay > 120)

# A tibble: 9,723 × 19
    year month   day dep_time sched_dep_time dep_delay arr_time sched_arr_time
   <int> <int> <int>    <int>          <int>     <dbl>    <int>          <int>
 1  2013     1     1      848           1835       853     1001           1950
 2  2013     1     1      957            733       144     1056            853
 3  2013     1     1     1114            900       134     1447           1222
 4  2013     1     1     1540           1338       122     2020           1825
 5  2013     1     1     1815           1325       290     2120           1542
 6  2013     1     1     1842           1422       260     1958           1535
 7  2013     1     1     1856           1645       131     2212           2005
 8  2013     1     1     1934           1725       129     2126           1855
 9  2013     1     1     1938           1703       155     2109           1823
10  2013     1     1     1942           1705       157     2124           1830
# ℹ 9,713 more rows
# ℹ 11 more variables: arr_delay <dbl>, carrier <chr>, flight <int>,
#   tailnum <chr>, origin <chr>, dest <chr>, air_time <dbl>, distance <dbl>,
#   hour <dbl>, minute <dbl>, time_hour <dttm>

new_set <- flights |> filter (month == 1 | month == 2)

Arrange ()

flights |> arrange(year, month, day, dep_time)

# A tibble: 336,776 × 19
    year month   day dep_time sched_dep_time dep_delay arr_time sched_arr_time
   <int> <int> <int>    <int>          <int>     <dbl>    <int>          <int>
 1  2013     1     1      517            515         2      830            819
 2  2013     1     1      533            529         4      850            830
 3  2013     1     1      542            540         2      923            850
 4  2013     1     1      544            545        -1     1004           1022
 5  2013     1     1      554            600        -6      812            837
 6  2013     1     1      554            558        -4      740            728
 7  2013     1     1      555            600        -5      913            854
 8  2013     1     1      557            600        -3      709            723
 9  2013     1     1      557            600        -3      838            846
10  2013     1     1      558            600        -2      753            745
# ℹ 336,766 more rows
# ℹ 11 more variables: arr_delay <dbl>, carrier <chr>, flight <int>,
#   tailnum <chr>, origin <chr>, dest <chr>, air_time <dbl>, distance <dbl>,
#   hour <dbl>, minute <dbl>, time_hour <dttm>

use desc() inside arrange()

flights |> arrange(desc(dep_delay))

# A tibble: 336,776 × 19
    year month   day dep_time sched_dep_time dep_delay arr_time sched_arr_time
   <int> <int> <int>    <int>          <int>     <dbl>    <int>          <int>
 1  2013     1     9      641            900      1301     1242           1530
 2  2013     6    15     1432           1935      1137     1607           2120
 3  2013     1    10     1121           1635      1126     1239           1810
 4  2013     9    20     1139           1845      1014     1457           2210
 5  2013     7    22      845           1600      1005     1044           1815
 6  2013     4    10     1100           1900       960     1342           2211
 7  2013     3    17     2321            810       911      135           1020
 8  2013     6    27      959           1900       899     1236           2226
 9  2013     7    22     2257            759       898      121           1026
10  2013    12     5      756           1700       896     1058           2020
# ℹ 336,766 more rows
# ℹ 11 more variables: arr_delay <dbl>, carrier <chr>, flight <int>,
#   tailnum <chr>, origin <chr>, dest <chr>, air_time <dbl>, distance <dbl>,
#   hour <dbl>, minute <dbl>, time_hour <dttm>

Distinct()

#distinct() finds all the unique rows in a dataset
flights |> distinct()

# A tibble: 336,776 × 19
    year month   day dep_time sched_dep_time dep_delay arr_time sched_arr_time
   <int> <int> <int>    <int>          <int>     <dbl>    <int>          <int>
 1  2013     1     1      517            515         2      830            819
 2  2013     1     1      533            529         4      850            830
 3  2013     1     1      542            540         2      923            850
 4  2013     1     1      544            545        -1     1004           1022
 5  2013     1     1      554            600        -6      812            837
 6  2013     1     1      554            558        -4      740            728
 7  2013     1     1      555            600        -5      913            854
 8  2013     1     1      557            600        -3      709            723
 9  2013     1     1      557            600        -3      838            846
10  2013     1     1      558            600        -2      753            745
# ℹ 336,766 more rows
# ℹ 11 more variables: arr_delay <dbl>, carrier <chr>, flight <int>,
#   tailnum <chr>, origin <chr>, dest <chr>, air_time <dbl>, distance <dbl>,
#   hour <dbl>, minute <dbl>, time_hour <dttm>

#Find all unique origins and destination pairs
flights |> distinct(origin, dest)

# A tibble: 224 × 2
   origin dest 
   <chr>  <chr>
 1 EWR    IAH  
 2 LGA    IAH  
 3 JFK    MIA  
 4 JFK    BQN  
 5 LGA    ATL  
 6 EWR    ORD  
 7 EWR    FLL  
 8 LGA    IAD  
 9 JFK    MCO  
10 LGA    ORD  
# ℹ 214 more rows

#keep the other columns while filtering for unique rows, use .keep_all = TRUE
flights |> distinct(origin, dest, .keep_all = TRUE)

# A tibble: 224 × 19
    year month   day dep_time sched_dep_time dep_delay arr_time sched_arr_time
   <int> <int> <int>    <int>          <int>     <dbl>    <int>          <int>
 1  2013     1     1      517            515         2      830            819
 2  2013     1     1      533            529         4      850            830
 3  2013     1     1      542            540         2      923            850
 4  2013     1     1      544            545        -1     1004           1022
 5  2013     1     1      554            600        -6      812            837
 6  2013     1     1      554            558        -4      740            728
 7  2013     1     1      555            600        -5      913            854
 8  2013     1     1      557            600        -3      709            723
 9  2013     1     1      557            600        -3      838            846
10  2013     1     1      558            600        -2      753            745
# ℹ 214 more rows
# ℹ 11 more variables: arr_delay <dbl>, carrier <chr>, flight <int>,
#   tailnum <chr>, origin <chr>, dest <chr>, air_time <dbl>, distance <dbl>,
#   hour <dbl>, minute <dbl>, time_hour <dttm>

Find the number of occurrence, use count(), with sort = TRUE we can arrange occurrences in descending order.

flights |> count(origin, dest, sort = TRUE)

# A tibble: 224 × 3
   origin dest      n
   <chr>  <chr> <int>
 1 JFK    LAX   11262
 2 LGA    ATL   10263
 3 LGA    ORD    8857
 4 JFK    SFO    8204
 5 LGA    CLT    6168
 6 EWR    ORD    6100
 7 JFK    BOS    5898
 8 LGA    MIA    5781
 9 JFK    MCO    5464
10 EWR    BOS    5327
# ℹ 214 more rows
…
# A tibble: 1 × 1
  all_days_have_flights
  <lgl>                
1 TRUE                 

Conclusion: Since the answer is TRUE, there was a flight on every day of 2013.

Question 5. Which flights traveled the farthest distance? Which traveled the least distance?

far <- flights |> filter(distance == max(distance))
print(far)

# A tibble: 342 × 19
    year month   day dep_time sched_dep_time dep_delay arr_time sched_arr_time
   <int> <int> <int>    <int>          <int>     <dbl>    <int>          <int>
 1  2013     1     1      857            900        -3     1516           1530
 2  2013     1     2      909            900         9     1525           1530
 3  2013     1     3      914            900        14     1504           1530
 4  2013     1     4      900            900         0     1516           1530
 5  2013     1     5      858            900        -2     1519           1530
 6  2013     1     6     1019            900        79     1558           1530
 7  2013     1     7     1042            900       102     1620           1530
 8  2013     1     8      901            900         1     1504           1530
 9  2013     1     9      641            900      1301     1242           1530
10  2013     1    10      859            900        -1     1449           1530
# ℹ 332 more rows
# ℹ 11 more variables: arr_delay <dbl>, carrier <chr>, flight <int>,
#   tailnum <chr>, origin <chr>, dest <chr>, air_time <dbl>, distance <dbl>,
#   hour <dbl>, minute <dbl>, time_hour <dttm>
…
Conclusion: The farthest distance is flight from JFK to HNL. The least distance is flight from EWR to LGA.

Section 3.3.5

Question 1. Compare dep_time, sched_dep_time, and dep_delay. How would you expect those three numbers to be related?

I expect dep_delay = dep_time - sched_dep_time

flights |> mutate(cal_dep_delay = dep_time - sched_dep_time, .after = dep_delay)

# A tibble: 336,776 × 20
    year month   day dep_time sched_dep_time dep_delay cal_dep_delay arr_time
   <int> <int> <int>    <int>          <int>     <dbl>         <int>    <int>
 1  2013     1     1      517            515         2             2      830
 2  2013     1     1      533            529         4             4      850
 3  2013     1     1      542            540         2             2      923
 4  2013     1     1      544            545        -1            -1     1004
 5  2013     1     1      554            600        -6           -46      812
 6  2013     1     1      554            558        -4            -4      740
 7  2013     1     1      555            600        -5           -45      913
 8  2013     1     1      557            600        -3           -43      709
 9  2013     1     1      557            600        -3           -43      838
10  2013     1     1      558            600        -2           -42      753
# ℹ 336,766 more rows
# ℹ 12 more variables: sched_arr_time <int>, arr_delay <dbl>, carrier <chr>,
#   flight <int>, tailnum <chr>, origin <chr>, dest <chr>, air_time <dbl>,
#   distance <dbl>, hour <dbl>, minute <dbl>, time_hour <dttm>

Conclusion: I created a new column called “cal_dep_deplay” and put it after column “dep_delay” so we can compare them easily. It seems like two columns have the same values except where sched_dep_time > dep_ time, the “cal_dep_deplay” will add (-40) to the cal_dep_deplay.

Question 4. What does the any_of() function do? Why might it be helpful in conjunction with this vector?

variables <- c("year", "month", "day", "dep_delay", "arr_delay")
flights %>% select(any_of(variables))

# A tibble: 336,776 × 5
    year month   day dep_delay arr_delay
   <int> <int> <int>     <dbl>     <dbl>
 1  2013     1     1         2        11
 2  2013     1     1         4        20
 3  2013     1     1         2        33
 4  2013     1     1        -1       -18
 5  2013     1     1        -6       -25
 6  2013     1     1        -4        12
 7  2013     1     1        -5        19
 8  2013     1     1        -3       -14
 9  2013     1     1        -3        -8
10  2013     1     1        -2         8
# ℹ 336,766 more rows
…
Conclusion: F9 has the worst average delays

flights |> 
  group_by(carrier, dest) |> 
  summarize(
    avg_arr_delay = mean(arr_delay, na.rm = TRUE),
    flights = n(),
    .groups = "drop"
  ) |> 
  arrange(desc(avg_arr_delay))

# A tibble: 314 × 4
   carrier dest  avg_arr_delay flights
   <chr>   <chr>         <dbl>   <int>
 1 UA      STL           110         2
 2 OO      ORD           107         1
 3 OO      DTW            68.5       2
 4 UA      RDU            56         1
 5 EV      CAE            42.8     113
 6 EV      TYS            41.2     323
 7 EV      PBI            40.7       6
 8 EV      TUL            33.7     315
 9 EV      OKC            30.6     346
10 UA      JAC            29.9      23
# ℹ 304 more rows

Based on the data, I don’t think I can disentangle the effects of bad airports vs. bad carriers.

Question 2. Find the flights that are most delayed upon departure from each destination.

most_dep_by_dest <- flights |>
  group_by(dest) |>
  slice_max(dep_delay, n = 1, with_ties = TRUE) |>
  ungroup()

most_dep_by_dest

# A tibble: 105 × 19
    year month   day dep_time sched_dep_time dep_delay arr_time sched_arr_time
   <int> <int> <int>    <int>          <int>     <dbl>    <int>          <int>
 1  2013    12    14     2223           2001       142      133           2304
 2  2013     7    23     1139            800       219     1250            909
 3  2013     1    25      123           2000       323      229           2101
 4  2013     8    17     1740           1625        75     2042           2003
 5  2013     7    22     2257            759       898      121           1026
 6  2013     7    10     2056           1505       351     2347           1758
 7  2013     6    14     1158            816       222     1335           1007
 8  2013     2    21     1728           1316       252     1839           1413
 9  2013    12     1     1504           1056       248     1628           1230
10  2013     4    10       25           1900       325      136           2045
# ℹ 95 more rows
# ℹ 11 more variables: arr_delay <dbl>, carrier <chr>, flight <int>,
#   tailnum <chr>, origin <chr>, dest <chr>, air_time <dbl>, distance <dbl>,
#   hour <dbl>, minute <dbl>, time_hour <dttm>
…
